Library\Bee\artifacts\mvdfrm\UnityEditor.TestRunner.ref.dll_193EC4CE382CBFB3.mvfrm
Library\Bee\artifacts\mvdfrm\UnityEditor.UI.ref.dll_4C98D3F7040CD4F5.mvfrm
Library\Bee\artifacts\mvdfrm\UnityEngine.TestRunner.ref.dll_E55D0F7C63F01D9E.mvfrm
Library\Bee\artifacts\mvdfrm\UnityEngine.UI.ref.dll_08FEAA520A2EFD60.mvfrm
Library\Bee\artifacts\mvdfrm\Unity.Burst.Cecil.dll_8BACFD4A9A5F772B.mvfrm
Library\Bee\artifacts\mvdfrm\Unity.Burst.Cecil.Mdb.dll_25D2F1CCB90FAD28.mvfrm
Library\Bee\artifacts\mvdfrm\Unity.Burst.Cecil.Pdb.dll_3D256A3C37C4AEAB.mvfrm
Library\Bee\artifacts\mvdfrm\Unity.Burst.Cecil.Rocks.dll_E6511E0A5811822B.mvfrm
Library\Bee\artifacts\mvdfrm\Unity.Burst.Unsafe.dll_398790282E2B10F8.mvfrm
Library\Bee\artifacts\mvdfrm\Unity.Plastic.Antlr3.Runtime.dll_FF87B4A38134DC31.mvfrm
Library\Bee\artifacts\mvdfrm\Unity.Plastic.Newtonsoft.Json.dll_F21EC27708BAF174.mvfrm
Library\Bee\artifacts\mvdfrm\Unity.VisualScripting.IonicZip.dll_90D4352EE8ED16CE.mvfrm
Library\Bee\artifacts\mvdfrm\Unity.VisualScripting.YamlDotNet.dll_302E4B767C832C0E.mvfrm
Library\Bee\artifacts\mvdfrm\Unity.VisualScripting.Antlr3.Runtime.dll_E19B7257AD4C3C2D.mvfrm
Library\Bee\artifacts\mvdfrm\UnityEditor.Graphs.dll_7061F1AC2ABCA378.mvfrm
Library\Bee\artifacts\mvdfrm\UnityEditor.CoreModule.dll_2D8BB6F85640DF46.mvfrm
Library\Bee\artifacts\mvdfrm\UnityEditor.DeviceSimulatorModule.dll_8B40AC9EEFD13B5B.mvfrm
Library\Bee\artifacts\mvdfrm\UnityEditor.DiagnosticsModule.dll_3A7E86CA4F669EE9.mvfrm
Library\Bee\artifacts\mvdfrm\UnityEditor.dll_091A6746DF3D676F.mvfrm
Library\Bee\artifacts\mvdfrm\UnityEditor.GraphViewModule.dll_1136076DF8EF7FA0.mvfrm
Library\Bee\artifacts\mvdfrm\UnityEditor.PackageManagerUIModule.dll_FBC1715A05EF1122.mvfrm
Library\Bee\artifacts\mvdfrm\UnityEditor.QuickSearchModule.dll_C58E07D7A83D9B42.mvfrm
Library\Bee\artifacts\mvdfrm\UnityEditor.SceneTemplateModule.dll_37A6C413F711B603.mvfrm
Library\Bee\artifacts\mvdfrm\UnityEditor.TextCoreFontEngineModule.dll_59D903C9243B0A04.mvfrm
Library\Bee\artifacts\mvdfrm\UnityEditor.TextCoreTextEngineModule.dll_A1C13A3AB3BEC322.mvfrm
Library\Bee\artifacts\mvdfrm\UnityEditor.UIBuilderModule.dll_65BEB48A6BA7F8D4.mvfrm
Library\Bee\artifacts\mvdfrm\UnityEditor.UIElementsModule.dll_3D314694A3C844C2.mvfrm
Library\Bee\artifacts\mvdfrm\UnityEditor.UIElementsSamplesModule.dll_BF80EDB141B11ECB.mvfrm
Library\Bee\artifacts\mvdfrm\UnityEditor.UIServiceModule.dll_9EB0C5ED54DF48EE.mvfrm
Library\Bee\artifacts\mvdfrm\UnityEditor.UnityConnectModule.dll_EF3619AD901F30FC.mvfrm
Library\Bee\artifacts\mvdfrm\UnityEngine.AccessibilityModule.dll_6A4C2FAAF787DDA0.mvfrm
Library\Bee\artifacts\mvdfrm\UnityEngine.AIModule.dll_3E780A41B21280DA.mvfrm
Library\Bee\artifacts\mvdfrm\UnityEngine.AndroidJNIModule.dll_BB7A2F67ECE7B398.mvfrm
Library\Bee\artifacts\mvdfrm\UnityEngine.AnimationModule.dll_DFBB8396D34C5446.mvfrm
Library\Bee\artifacts\mvdfrm\UnityEngine.ARModule.dll_F7EACF450F2FDFA3.mvfrm
Library\Bee\artifacts\mvdfrm\UnityEngine.AssetBundleModule.dll_09773AC90AA45034.mvfrm
Library\Bee\artifacts\mvdfrm\UnityEngine.AudioModule.dll_548B840DBA4633B8.mvfrm
Library\Bee\artifacts\mvdfrm\UnityEngine.ClothModule.dll_BB73E1089463129C.mvfrm
Library\Bee\artifacts\mvdfrm\UnityEngine.ClusterInputModule.dll_6ED28EC341A703C2.mvfrm
Library\Bee\artifacts\mvdfrm\UnityEngine.ClusterRendererModule.dll_90ED6F105F8C48DF.mvfrm
Library\Bee\artifacts\mvdfrm\UnityEngine.CoreModule.dll_50AC8A4AFE464A71.mvfrm
Library\Bee\artifacts\mvdfrm\UnityEngine.CrashReportingModule.dll_6439439333BD4EA9.mvfrm
Library\Bee\artifacts\mvdfrm\UnityEngine.DirectorModule.dll_14028C31AA552CCE.mvfrm
Library\Bee\artifacts\mvdfrm\UnityEngine.dll_3BBEAE1F3DB0F454.mvfrm
Library\Bee\artifacts\mvdfrm\UnityEngine.DSPGraphModule.dll_1953ED9B1CB5FDEF.mvfrm
Library\Bee\artifacts\mvdfrm\UnityEngine.GameCenterModule.dll_E5C77982B328A489.mvfrm
Library\Bee\artifacts\mvdfrm\UnityEngine.GIModule.dll_D6B4534F4DC168F4.mvfrm
Library\Bee\artifacts\mvdfrm\UnityEngine.GridModule.dll_2E1DA639169AE068.mvfrm
Library\Bee\artifacts\mvdfrm\UnityEngine.HotReloadModule.dll_6104419CAE7F6FC8.mvfrm
Library\Bee\artifacts\mvdfrm\UnityEngine.ImageConversionModule.dll_FCDF6CC0E1B100D3.mvfrm
Library\Bee\artifacts\mvdfrm\UnityEngine.IMGUIModule.dll_8CEB23748077C799.mvfrm
Library\Bee\artifacts\mvdfrm\UnityEngine.InputLegacyModule.dll_9ABC55E7A2960625.mvfrm
Library\Bee\artifacts\mvdfrm\UnityEngine.InputModule.dll_BB014BBE307E585C.mvfrm
Library\Bee\artifacts\mvdfrm\UnityEngine.JSONSerializeModule.dll_CA63B8E6F6C33E2A.mvfrm
Library\Bee\artifacts\mvdfrm\UnityEngine.LocalizationModule.dll_AD1F5915D922F6BB.mvfrm
Library\Bee\artifacts\mvdfrm\UnityEngine.NVIDIAModule.dll_53FEC5C598C1A6FD.mvfrm
Library\Bee\artifacts\mvdfrm\UnityEngine.ParticleSystemModule.dll_B74B8CDFA1CEDA37.mvfrm
Library\Bee\artifacts\mvdfrm\UnityEngine.PerformanceReportingModule.dll_CA56B5B9D7F29030.mvfrm
Library\Bee\artifacts\mvdfrm\UnityEngine.Physics2DModule.dll_2C61738774494BDB.mvfrm
Library\Bee\artifacts\mvdfrm\UnityEngine.PhysicsModule.dll_B6127599D7320589.mvfrm
Library\Bee\artifacts\mvdfrm\UnityEngine.ProfilerModule.dll_4648C56843AEB3DB.mvfrm
Library\Bee\artifacts\mvdfrm\UnityEngine.RuntimeInitializeOnLoadManagerInitializerModule.dll_42C7430ED5F2F2A4.mvfrm
Library\Bee\artifacts\mvdfrm\UnityEngine.ScreenCaptureModule.dll_E44B666C0B2F6A8C.mvfrm
Library\Bee\artifacts\mvdfrm\UnityEngine.SharedInternalsModule.dll_80F0AB9658DEFC23.mvfrm
Library\Bee\artifacts\mvdfrm\UnityEngine.SpriteMaskModule.dll_CEF3EC12D4983A03.mvfrm
Library\Bee\artifacts\mvdfrm\UnityEngine.SpriteShapeModule.dll_22D86823C046883E.mvfrm
Library\Bee\artifacts\mvdfrm\UnityEngine.StreamingModule.dll_945070E722D40B84.mvfrm
Library\Bee\artifacts\mvdfrm\UnityEngine.SubstanceModule.dll_70FB85306E270992.mvfrm
Library\Bee\artifacts\mvdfrm\UnityEngine.SubsystemsModule.dll_39A15274A2E02216.mvfrm
Library\Bee\artifacts\mvdfrm\UnityEngine.TerrainModule.dll_D058F108ACF04E77.mvfrm
Library\Bee\artifacts\mvdfrm\UnityEngine.TerrainPhysicsModule.dll_B7C635B2BB11D4C4.mvfrm
Library\Bee\artifacts\mvdfrm\UnityEngine.TextCoreFontEngineModule.dll_D8387F1C3738C8CF.mvfrm
Library\Bee\artifacts\mvdfrm\UnityEngine.TextCoreTextEngineModule.dll_2020B58DC6BC81ED.mvfrm
Library\Bee\artifacts\mvdfrm\UnityEngine.TextRenderingModule.dll_0D8AD876C266EA81.mvfrm
Library\Bee\artifacts\mvdfrm\UnityEngine.TilemapModule.dll_6F555889C4AD2F80.mvfrm
Library\Bee\artifacts\mvdfrm\UnityEngine.TLSModule.dll_F51AE660AE864C1D.mvfrm
Library\Bee\artifacts\mvdfrm\UnityEngine.UaaLAnalyticsModule.dll_583608469C77D5B1.mvfrm
Library\Bee\artifacts\mvdfrm\UnityEngine.UIElementsModule.dll_3DDFB3DCA60C5E0D.mvfrm
Library\Bee\artifacts\mvdfrm\UnityEngine.UIElementsNativeModule.dll_463B25EF77678144.mvfrm
Library\Bee\artifacts\mvdfrm\UnityEngine.UIModule.dll_39EBA86F0E598686.mvfrm
Library\Bee\artifacts\mvdfrm\UnityEngine.UmbraModule.dll_CF603026476CDF2B.mvfrm
Library\Bee\artifacts\mvdfrm\UnityEngine.UNETModule.dll_E352D2344B553FEA.mvfrm
Library\Bee\artifacts\mvdfrm\UnityEngine.UnityAnalyticsModule.dll_D6EAFDA94DF62C33.mvfrm
Library\Bee\artifacts\mvdfrm\UnityEngine.UnityConnectModule.dll_DC959DBC8AA731A7.mvfrm
Library\Bee\artifacts\mvdfrm\UnityEngine.UnityCurlModule.dll_12D824C843604633.mvfrm
Library\Bee\artifacts\mvdfrm\UnityEngine.UnityTestProtocolModule.dll_7B43A3A39BAC7421.mvfrm
Library\Bee\artifacts\mvdfrm\UnityEngine.UnityWebRequestAssetBundleModule.dll_F9FDDF8C2AC7BD44.mvfrm
Library\Bee\artifacts\mvdfrm\UnityEngine.UnityWebRequestAudioModule.dll_425309985E5D5AC8.mvfrm
Library\Bee\artifacts\mvdfrm\UnityEngine.UnityWebRequestModule.dll_0E7E746AECA59B52.mvfrm
Library\Bee\artifacts\mvdfrm\UnityEngine.UnityWebRequestTextureModule.dll_183845BF2776999D.mvfrm
Library\Bee\artifacts\mvdfrm\UnityEngine.UnityWebRequestWWWModule.dll_EAE2FAE9B67C3E59.mvfrm
Library\Bee\artifacts\mvdfrm\UnityEngine.VehiclesModule.dll_8BC585B1247EFC69.mvfrm
Library\Bee\artifacts\mvdfrm\UnityEngine.VFXModule.dll_75F97ECF84F3B58A.mvfrm
Library\Bee\artifacts\mvdfrm\UnityEngine.VideoModule.dll_799508787CD84F5D.mvfrm
Library\Bee\artifacts\mvdfrm\UnityEngine.VirtualTexturingModule.dll_6AC7DA5E501601CF.mvfrm
Library\Bee\artifacts\mvdfrm\UnityEngine.VRModule.dll_8CBDCEF4B0140BFE.mvfrm
Library\Bee\artifacts\mvdfrm\UnityEngine.WindModule.dll_C6FB65738F7CC8DA.mvfrm
Library\Bee\artifacts\mvdfrm\UnityEngine.XRModule.dll_BF7C91F9394E595C.mvfrm
Library\Bee\artifacts\mvdfrm\UnityEditor.WindowsStandalone.Extensions.dll_A5B28AE98E7C9CBA.mvfrm